^C:\USERS\REV\DESKTOP\개인폴더\김민규\자료구조\01\DS 01\1-3\MAIN.C
/c /ZI /nologo /W3 /WX- /sdl /Od /Oy- /D _MBCS /Gm /EHsc /RTC1 /MDd /GS /fp:precise /Zc:wchar_t /Zc:forScope /Fo"DEBUG\\" /Fd"DEBUG\VC120.PDB" /Gd /TC /analyze- C:\USERS\REV\DESKTOP\개인폴더\김민규\자료구조\01\DS 01\1-3\MAIN.C
^Z:\2학년 1학기\자료구조\과제\DS_01\1-3\MAIN.C
/c /ZI /nologo /W3 /WX- /sdl /Od /Oy- /D _MBCS /Gm /EHsc /RTC1 /MDd /GS /fp:precise /Zc:wchar_t /Zc:forScope /Fo"DEBUG\\" /Fd"DEBUG\VC120.PDB" /Gd /TC /analyze- Z:\2학년 1학기\자료구조\과제\DS_01\1-3\MAIN.C
